C:\Users\Jitendra\jbworkspace\CXF-REST\src\main\java\exception\DataNotFoundExceptionMapper.java
C:\Users\Jitendra\jbworkspace\CXF-REST\src\main\java\exception\DataNotFoundException.java
C:\Users\Jitendra\jbworkspace\CXF-REST\src\main\java\com\processor\CustomerProcessor.java
C:\Users\Jitendra\jbworkspace\CXF-REST\src\main\java\com\db\DbMap.java
C:\Users\Jitendra\jbworkspace\CXF-REST\src\main\java\com\model\Customer.java
C:\Users\Jitendra\jbworkspace\CXF-REST\src\main\java\com\model\ErrorMessage.java
C:\Users\Jitendra\jbworkspace\CXF-REST\src\main\java\com\resource\CustomerResourceImpl.java
C:\Users\Jitendra\jbworkspace\CXF-REST\src\main\java\com\resource\CustomerResource.java
